{
"instructions_readme": "1) Open Chrome, 2) go to chrome://tracing, 3) click Load, 4) navigate to this file.",
"traceEvents":[
{ "cat":"", "pid":1, "tid":0, "ts":0, "ph":"M", "name":"process_name", "args": { "name":"tundra" } }
,{ "pid":1, "tid":0, "ts":182167300486, "dur":223, "ph":"X", "name": "DriverCheckDagSignatures",  "args": { "durationMS":0, "detail":"" }}
,{ "pid":1, "tid":0, "ts":182167300709, "dur":208, "ph":"X", "name": "DriverInitData",  "args": { "durationMS":0, "detail":"" }}
,{ "pid":1, "tid":0, "ts":182167301035, "dur":8, "ph":"X", "name": "Tundra",  "args": { "durationMS":0, "detail":"PrepareNodes" }}
,{ "pid":1, "tid":0, "ts":182167301045, "dur":40, "ph":"X", "name": "Tundra",  "args": { "durationMS":0, "detail":"RemoveStaleOutputs" }}
,{ "pid":1, "tid":0, "ts":182167301086, "dur":725, "ph":"X", "name": "Tundra",  "args": { "durationMS":1, "detail":"BuildQueueInit" }}
,{ "pid":1, "tid":0, "ts":182207544797, "dur":22591, "ph":"X", "name": "JoinBuildThread",  "args": { "durationMS":23, "detail":"" }}
,{ "pid":1, "tid":0, "ts":182207567820, "dur":5, "ph":"X", "name": "JoinBuildThread",  "args": { "durationMS":0, "detail":"" }}
,{ "pid":1, "tid":0, "ts":182207567870, "dur":5, "ph":"X", "name": "JoinBuildThread",  "args": { "durationMS":0, "detail":"" }}
,{ "pid":1, "tid":0, "ts":182207567930, "dur":7, "ph":"X", "name": "JoinBuildThread",  "args": { "durationMS":0, "detail":"" }}
,{ "pid":1, "tid":0, "ts":182207567951, "dur":3, "ph":"X", "name": "JoinBuildThread",  "args": { "durationMS":0, "detail":"" }}
,{ "pid":1, "tid":0, "ts":182207567968, "dur":3, "ph":"X", "name": "JoinBuildThread",  "args": { "durationMS":0, "detail":"" }}
,{ "pid":1, "tid":0, "ts":182207567976, "dur":3, "ph":"X", "name": "JoinBuildThread",  "args": { "durationMS":0, "detail":"" }}
,{ "pid":1, "tid":0, "ts":182207567986, "dur":91, "ph":"X", "name": "JoinBuildThread",  "args": { "durationMS":0, "detail":"" }}
,{ "pid":1, "tid":0, "ts":182207568082, "dur":3, "ph":"X", "name": "JoinBuildThread",  "args": { "durationMS":0, "detail":"" }}
,{ "pid":1, "tid":0, "ts":182207568091, "dur":2, "ph":"X", "name": "JoinBuildThread",  "args": { "durationMS":0, "detail":"" }}
,{ "pid":1, "tid":0, "ts":182207568099, "dur":2, "ph":"X", "name": "JoinBuildThread",  "args": { "durationMS":0, "detail":"" }}
,{ "pid":1, "tid":0, "ts":182207568107, "dur":1, "ph":"X", "name": "JoinBuildThread",  "args": { "durationMS":0, "detail":"" }}
,{ "pid":1, "tid":0, "ts":182207568114, "dur":2, "ph":"X", "name": "JoinBuildThread",  "args": { "durationMS":0, "detail":"" }}
,{ "pid":1, "tid":0, "ts":182207568121, "dur":2, "ph":"X", "name": "JoinBuildThread",  "args": { "durationMS":0, "detail":"" }}
,{ "pid":1, "tid":0, "ts":182207568129, "dur":2, "ph":"X", "name": "JoinBuildThread",  "args": { "durationMS":0, "detail":"" }}
,{ "pid":1, "tid":0, "ts":182207568137, "dur":2, "ph":"X", "name": "JoinBuildThread",  "args": { "durationMS":0, "detail":"" }}
,{ "pid":1, "tid":0, "ts":182207568145, "dur":2, "ph":"X", "name": "JoinBuildThread",  "args": { "durationMS":0, "detail":"" }}
,{ "pid":1, "tid":0, "ts":182207568153, "dur":2, "ph":"X", "name": "JoinBuildThread",  "args": { "durationMS":0, "detail":"" }}
,{ "pid":1, "tid":0, "ts":182207568161, "dur":2, "ph":"X", "name": "JoinBuildThread",  "args": { "durationMS":0, "detail":"" }}
,{ "pid":1, "tid":0, "ts":182207568171, "dur":2, "ph":"X", "name": "JoinBuildThread",  "args": { "durationMS":0, "detail":"" }}
,{ "pid":1, "tid":0, "ts":182207568178, "dur":2, "ph":"X", "name": "JoinBuildThread",  "args": { "durationMS":0, "detail":"" }}
,{ "pid":1, "tid":0, "ts":182207568187, "dur":2, "ph":"X", "name": "JoinBuildThread",  "args": { "durationMS":0, "detail":"" }}
,{ "pid":1, "tid":0, "ts":182207568197, "dur":2, "ph":"X", "name": "JoinBuildThread",  "args": { "durationMS":0, "detail":"" }}
,{ "pid":1, "tid":0, "ts":182207568206, "dur":2, "ph":"X", "name": "JoinBuildThread",  "args": { "durationMS":0, "detail":"" }}
,{ "pid":1, "tid":0, "ts":182207568213, "dur":0, "ph":"X", "name": "SharedResourceDestroy",  "args": { "durationMS":0, "detail":"" }}
,{ "pid":1, "tid":0, "ts":182207568215, "dur":6591, "ph":"X", "name": "Tundra",  "args": { "durationMS":7, "detail":"Write AllBuiltNodes" }}
,{ "pid":1, "tid":1, "ts":182167301488, "dur":40243344, "ph":"X", "name": "WaitingForWork", "cname":"thread_state_sleeping",  "args": { "durationMS":40243, "detail":"" }}
,{ "pid":1, "tid":1, "ts":182207544833, "dur":22358, "ph":"X", "name": "Exiting",  "args": { "durationMS":22, "detail":"BuildLoop" }}
,{ "pid":1, "tid":2, "ts":182167301560, "dur":265, "ph":"X", "name": "WaitingForWork", "cname":"thread_state_sleeping",  "args": { "durationMS":0, "detail":"" }}
,{ "pid":1, "tid":2, "ts":182167301830, "dur":10, "ph":"X", "name": "CheckInputSignature",  "args": { "durationMS":0, "detail":"WriteResponseFile artifacts/rsp/16702968300067716628.rsp" }}
,{ "pid":1, "tid":2, "ts":182167301943, "dur":8142, "ph":"X", "name": "CheckInputSignature",  "args": { "durationMS":8, "detail":"Il2Cpp E:/Project_CNY_Unity_2020/Library/Il2cppBuildCache/WebGL/Native/build.bc" }}
,{ "pid":1, "tid":2, "ts":182167599249, "dur":39945434, "ph":"X", "name": "Il2Cpp",  "args": { "durationMS":39945, "detail":"E:/Project_CNY_Unity_2020/Library/Il2cppBuildCache/WebGL/Native/build.bc" }}
,{ "pid":1, "tid":2, "ts":182207544721, "dur":1, "ph":"X", "name": "CheckInputSignature",  "args": { "durationMS":0, "detail":"all_tundra_nodes" }}
,{ "pid":1, "tid":2, "ts":182207544726, "dur":118, "ph":"X", "name": "WaitingForWork", "cname":"thread_state_sleeping",  "args": { "durationMS":0, "detail":"" }}
,{ "pid":1, "tid":2, "ts":182207544844, "dur":22342, "ph":"X", "name": "Exiting",  "args": { "durationMS":22, "detail":"BuildLoop" }}
,{ "pid":1, "tid":3, "ts":182167301556, "dur":40243242, "ph":"X", "name": "WaitingForWork", "cname":"thread_state_sleeping",  "args": { "durationMS":40243, "detail":"" }}
,{ "pid":1, "tid":3, "ts":182207544798, "dur":22411, "ph":"X", "name": "Exiting",  "args": { "durationMS":22, "detail":"BuildLoop" }}
,{ "pid":1, "tid":4, "ts":182167301607, "dur":40243192, "ph":"X", "name": "WaitingForWork", "cname":"thread_state_sleeping",  "args": { "durationMS":40243, "detail":"" }}
,{ "pid":1, "tid":4, "ts":182207544800, "dur":22428, "ph":"X", "name": "Exiting",  "args": { "durationMS":22, "detail":"BuildLoop" }}
,{ "pid":1, "tid":5, "ts":182167301639, "dur":40243157, "ph":"X", "name": "WaitingForWork", "cname":"thread_state_sleeping",  "args": { "durationMS":40243, "detail":"" }}
,{ "pid":1, "tid":5, "ts":182207544797, "dur":22413, "ph":"X", "name": "Exiting",  "args": { "durationMS":22, "detail":"BuildLoop" }}
,{ "pid":1, "tid":6, "ts":182167302050, "dur":40242773, "ph":"X", "name": "WaitingForWork", "cname":"thread_state_sleeping",  "args": { "durationMS":40243, "detail":"" }}
,{ "pid":1, "tid":6, "ts":182207544824, "dur":22371, "ph":"X", "name": "Exiting",  "args": { "durationMS":22, "detail":"BuildLoop" }}
,{ "pid":1, "tid":7, "ts":182167301701, "dur":40243126, "ph":"X", "name": "WaitingForWork", "cname":"thread_state_sleeping",  "args": { "durationMS":40243, "detail":"" }}
,{ "pid":1, "tid":7, "ts":182207544829, "dur":22363, "ph":"X", "name": "Exiting",  "args": { "durationMS":22, "detail":"BuildLoop" }}
,{ "pid":1, "tid":8, "ts":182167302093, "dur":40242738, "ph":"X", "name": "WaitingForWork", "cname":"thread_state_sleeping",  "args": { "durationMS":40243, "detail":"" }}
,{ "pid":1, "tid":8, "ts":182207544840, "dur":22349, "ph":"X", "name": "Exiting",  "args": { "durationMS":22, "detail":"BuildLoop" }}
,{ "pid":1, "tid":9, "ts":182167301750, "dur":40243061, "ph":"X", "name": "WaitingForWork", "cname":"thread_state_sleeping",  "args": { "durationMS":40243, "detail":"" }}
,{ "pid":1, "tid":9, "ts":182207544812, "dur":22396, "ph":"X", "name": "Exiting",  "args": { "durationMS":22, "detail":"BuildLoop" }}
,{ "pid":1, "tid":10, "ts":182167301783, "dur":40243025, "ph":"X", "name": "WaitingForWork", "cname":"thread_state_sleeping",  "args": { "durationMS":40243, "detail":"" }}
,{ "pid":1, "tid":10, "ts":182207544808, "dur":22392, "ph":"X", "name": "Exiting",  "args": { "durationMS":22, "detail":"BuildLoop" }}
,{ "pid":1, "tid":11, "ts":182167301809, "dur":40242995, "ph":"X", "name": "WaitingForWork", "cname":"thread_state_sleeping",  "args": { "durationMS":40243, "detail":"" }}
,{ "pid":1, "tid":11, "ts":182207544805, "dur":22406, "ph":"X", "name": "Exiting",  "args": { "durationMS":22, "detail":"BuildLoop" }}
,{ "pid":1, "tid":12, "ts":182167301878, "dur":40242935, "ph":"X", "name": "WaitingForWork", "cname":"thread_state_sleeping",  "args": { "durationMS":40243, "detail":"" }}
,{ "pid":1, "tid":12, "ts":182207544813, "dur":22385, "ph":"X", "name": "Exiting",  "args": { "durationMS":22, "detail":"BuildLoop" }}
,{ "pid":1, "tid":13, "ts":182167301916, "dur":40242894, "ph":"X", "name": "WaitingForWork", "cname":"thread_state_sleeping",  "args": { "durationMS":40243, "detail":"" }}
,{ "pid":1, "tid":13, "ts":182207544811, "dur":22416, "ph":"X", "name": "Exiting",  "args": { "durationMS":22, "detail":"BuildLoop" }}
,{ "pid":1, "tid":14, "ts":182167301936, "dur":40242879, "ph":"X", "name": "WaitingForWork", "cname":"thread_state_sleeping",  "args": { "durationMS":40243, "detail":"" }}
,{ "pid":1, "tid":14, "ts":182207544817, "dur":22382, "ph":"X", "name": "Exiting",  "args": { "durationMS":22, "detail":"BuildLoop" }}
,{ "pid":1, "tid":15, "ts":182167301970, "dur":40242848, "ph":"X", "name": "WaitingForWork", "cname":"thread_state_sleeping",  "args": { "durationMS":40243, "detail":"" }}
,{ "pid":1, "tid":15, "ts":182207544820, "dur":22377, "ph":"X", "name": "Exiting",  "args": { "durationMS":22, "detail":"BuildLoop" }}
,{ "pid":1, "tid":16, "ts":182167301992, "dur":40242828, "ph":"X", "name": "WaitingForWork", "cname":"thread_state_sleeping",  "args": { "durationMS":40243, "detail":"" }}
,{ "pid":1, "tid":16, "ts":182207544823, "dur":22376, "ph":"X", "name": "Exiting",  "args": { "durationMS":22, "detail":"BuildLoop" }}
,{ "pid":1, "tid":17, "ts":182167302024, "dur":40242815, "ph":"X", "name": "WaitingForWork", "cname":"thread_state_sleeping",  "args": { "durationMS":40243, "detail":"" }}
,{ "pid":1, "tid":17, "ts":182207544842, "dur":22346, "ph":"X", "name": "Exiting",  "args": { "durationMS":22, "detail":"BuildLoop" }}
,{ "pid":1, "tid":18, "ts":182167301667, "dur":40243140, "ph":"X", "name": "WaitingForWork", "cname":"thread_state_sleeping",  "args": { "durationMS":40243, "detail":"" }}
,{ "pid":1, "tid":18, "ts":182207544807, "dur":22401, "ph":"X", "name": "Exiting",  "args": { "durationMS":22, "detail":"BuildLoop" }}
,{ "pid":1, "tid":19, "ts":182167302071, "dur":40242753, "ph":"X", "name": "WaitingForWork", "cname":"thread_state_sleeping",  "args": { "durationMS":40243, "detail":"" }}
,{ "pid":1, "tid":19, "ts":182207544825, "dur":22370, "ph":"X", "name": "Exiting",  "args": { "durationMS":22, "detail":"BuildLoop" }}
,{ "pid":1, "tid":20, "ts":182167301720, "dur":40243101, "ph":"X", "name": "WaitingForWork", "cname":"thread_state_sleeping",  "args": { "durationMS":40243, "detail":"" }}
,{ "pid":1, "tid":20, "ts":182207544824, "dur":22369, "ph":"X", "name": "Exiting",  "args": { "durationMS":22, "detail":"BuildLoop" }}
,{ "pid":1, "tid":21, "ts":182167302115, "dur":40242721, "ph":"X", "name": "WaitingForWork", "cname":"thread_state_sleeping",  "args": { "durationMS":40243, "detail":"" }}
,{ "pid":1, "tid":21, "ts":182207544836, "dur":22351, "ph":"X", "name": "Exiting",  "args": { "durationMS":22, "detail":"BuildLoop" }}
,{ "pid":1, "tid":22, "ts":182167302137, "dur":40242705, "ph":"X", "name": "WaitingForWork", "cname":"thread_state_sleeping",  "args": { "durationMS":40243, "detail":"" }}
,{ "pid":1, "tid":22, "ts":182207544843, "dur":22380, "ph":"X", "name": "Exiting",  "args": { "durationMS":22, "detail":"BuildLoop" }}
,{ "pid":1, "tid":23, "ts":182167302158, "dur":40242676, "ph":"X", "name": "WaitingForWork", "cname":"thread_state_sleeping",  "args": { "durationMS":40243, "detail":"" }}
,{ "pid":1, "tid":23, "ts":182207544834, "dur":22358, "ph":"X", "name": "Exiting",  "args": { "durationMS":22, "detail":"BuildLoop" }}
,{ "pid":1, "tid":24, "ts":182167302184, "dur":40242657, "ph":"X", "name": "WaitingForWork", "cname":"thread_state_sleeping",  "args": { "durationMS":40243, "detail":"" }}
,{ "pid":1, "tid":24, "ts":182207544841, "dur":22348, "ph":"X", "name": "Exiting",  "args": { "durationMS":22, "detail":"BuildLoop" }}

]
}
